%YAML 1.1
%TAG !u! tag:unity3d.com,2011:
--- !u!74 &7400000
AnimationClip:
  m_ObjectHideFlags: 0
  m_CorrespondingSourceObject: {fileID: 0}
  m_PrefabInstance: {fileID: 0}
  m_PrefabAsset: {fileID: 0}
  m_Name: Player_die
  serializedVersion: 6
  m_Legacy: 0
  m_Compressed: 0
  m_UseHighQualityCurve: 1
  m_RotationCurves: []
  m_CompressedRotationCurves: []
  m_EulerCurves: []
  m_PositionCurves: []
  m_ScaleCurves: []
  m_FloatCurves: []
  m_PPtrCurves:
  - curve:
    - time: 0
      value: {fileID: 21300000, guid: 21f4782181a67484fb7777d7e69a047b, type: 3}
    - time: 0.083333336
      value: {fileID: 21300000, guid: 7d5d7a598b8436241b55201529d1f0f3, type: 3}
    - time: 0.16666667
      value: {fileID: 21300000, guid: 688914e277adddb46bfdd6e88172e2d6, type: 3}
    - time: 0.25
      value: {fileID: 21300000, guid: e797804aa4fb9764899b0a45a687db33, type: 3}
    - time: 0.33333334
      value: {fileID: 21300000, guid: f20b7558e13353442924190f9007b9c7, type: 3}
    - time: 0.41666666
      value: {fileID: 21300000, guid: 868d645aac17ee8438d3699625c37fd4, type: 3}
    - time: 0.5
      value: {fileID: 21300000, guid: 6b413d6c971c15948bdc0e5f9196110c, type: 3}
    - time: 0.5833333
      value: {fileID: 21300000, guid: b8ad7e7a712936143a9a2762872c8088, type: 3}
    - time: 0.6666667
      value: {fileID: 21300000, guid: 3d0b2fd99f63065439ef70a16bd2d41c, type: 3}
    attribute: m_Sprite
    path: 
    classID: 212
    script: {fileID: 0}
  m_SampleRate: 12
  m_WrapMode: 0
  m_Bounds:
    m_Center: {x: 0, y: 0, z: 0}
    m_Extent: {x: 0, y: 0, z: 0}
  m_ClipBindingConstant:
    genericBindings:
    - serializedVersion: 2
      path: 0
      attribute: 0
      script: {fileID: 0}
      typeID: 212
      customType: 23
      isPPtrCurve: 1
    pptrCurveMapping:
    - {fileID: 21300000, guid: 21f4782181a67484fb7777d7e69a047b, type: 3}
    - {fileID: 21300000, guid: 7d5d7a598b8436241b55201529d1f0f3, type: 3}
    - {fileID: 21300000, guid: 688914e277adddb46bfdd6e88172e2d6, type: 3}
    - {fileID: 21300000, guid: e797804aa4fb9764899b0a45a687db33, type: 3}
    - {fileID: 21300000, guid: f20b7558e13353442924190f9007b9c7, type: 3}
    - {fileID: 21300000, guid: 868d645aac17ee8438d3699625c37fd4, type: 3}
    - {fileID: 21300000, guid: 6b413d6c971c15948bdc0e5f9196110c, type: 3}
    - {fileID: 21300000, guid: b8ad7e7a712936143a9a2762872c8088, type: 3}
    - {fileID: 21300000, guid: 3d0b2fd99f63065439ef70a16bd2d41c, type: 3}
  m_AnimationClipSettings:
    serializedVersion: 2
    m_AdditiveReferencePoseClip: {fileID: 0}
    m_AdditiveReferencePoseTime: 0
    m_StartTime: 0
    m_StopTime: 0.75
    m_OrientationOffsetY: 0
    m_Level: 0
    m_CycleOffset: 0
    m_HasAdditiveReferencePose: 0
    m_LoopTime: 1
    m_LoopBlend: 0
    m_LoopBlendOrientation: 0
    m_LoopBlendPositionY: 0
    m_LoopBlendPositionXZ: 0
    m_KeepOriginalOrientation: 0
    m_KeepOriginalPositionY: 1
    m_KeepOriginalPositionXZ: 0
    m_HeightFromFeet: 0
    m_Mirror: 0
  m_EditorCurves: []
  m_EulerEditorCurves: []
  m_HasGenericRootTransform: 0
  m_HasMotionFloatCurves: 0
  m_Events: []
