%YAML 1.1
%TAG !u! tag:unity3d.com,2011:
--- !u!74 &7400000
AnimationClip:
  m_ObjectHideFlags: 0
  m_CorrespondingSourceObject: {fileID: 0}
  m_PrefabInstance: {fileID: 0}
  m_PrefabAsset: {fileID: 0}
  m_Name: Player_idle
  serializedVersion: 6
  m_Legacy: 0
  m_Compressed: 0
  m_UseHighQualityCurve: 1
  m_RotationCurves: []
  m_CompressedRotationCurves: []
  m_EulerCurves: []
  m_PositionCurves: []
  m_ScaleCurves: []
  m_FloatCurves: []
  m_PPtrCurves:
  - curve:
    - time: 0
      value: {fileID: 21300000, guid: 217a34da322f09a4f915f2ca6befab73, type: 3}
    - time: 0.0625
      value: {fileID: 21300000, guid: 12eee55a7928b2b4a8ab2372add3c3c4, type: 3}
    - time: 0.125
      value: {fileID: 21300000, guid: 96cb4b8e1aa47dd448a16d526497b6c5, type: 3}
    - time: 0.1875
      value: {fileID: 21300000, guid: 7e7ef2ba79a109a479ea85356d7d0962, type: 3}
    - time: 0.25
      value: {fileID: 21300000, guid: 8337944ca1650be46aeff571949bc415, type: 3}
    - time: 0.3125
      value: {fileID: 21300000, guid: 5ef6074baf1ac9c44b4f598dc1e2da07, type: 3}
    - time: 0.375
      value: {fileID: 21300000, guid: 2f87bb987a3c98841950749dd38c9fd7, type: 3}
    - time: 0.4375
      value: {fileID: 21300000, guid: 56dc7b78efd5c724db005dfd8b30e54b, type: 3}
    attribute: m_Sprite
    path: 
    classID: 212
    script: {fileID: 0}
  m_SampleRate: 16
  m_WrapMode: 0
  m_Bounds:
    m_Center: {x: 0, y: 0, z: 0}
    m_Extent: {x: 0, y: 0, z: 0}
  m_ClipBindingConstant:
    genericBindings:
    - serializedVersion: 2
      path: 0
      attribute: 0
      script: {fileID: 0}
      typeID: 212
      customType: 23
      isPPtrCurve: 1
    pptrCurveMapping:
    - {fileID: 21300000, guid: 217a34da322f09a4f915f2ca6befab73, type: 3}
    - {fileID: 21300000, guid: 12eee55a7928b2b4a8ab2372add3c3c4, type: 3}
    - {fileID: 21300000, guid: 96cb4b8e1aa47dd448a16d526497b6c5, type: 3}
    - {fileID: 21300000, guid: 7e7ef2ba79a109a479ea85356d7d0962, type: 3}
    - {fileID: 21300000, guid: 8337944ca1650be46aeff571949bc415, type: 3}
    - {fileID: 21300000, guid: 5ef6074baf1ac9c44b4f598dc1e2da07, type: 3}
    - {fileID: 21300000, guid: 2f87bb987a3c98841950749dd38c9fd7, type: 3}
    - {fileID: 21300000, guid: 56dc7b78efd5c724db005dfd8b30e54b, type: 3}
  m_AnimationClipSettings:
    serializedVersion: 2
    m_AdditiveReferencePoseClip: {fileID: 0}
    m_AdditiveReferencePoseTime: 0
    m_StartTime: 0
    m_StopTime: 0.5
    m_OrientationOffsetY: 0
    m_Level: 0
    m_CycleOffset: 0
    m_HasAdditiveReferencePose: 0
    m_LoopTime: 1
    m_LoopBlend: 0
    m_LoopBlendOrientation: 0
    m_LoopBlendPositionY: 0
    m_LoopBlendPositionXZ: 0
    m_KeepOriginalOrientation: 0
    m_KeepOriginalPositionY: 1
    m_KeepOriginalPositionXZ: 0
    m_HeightFromFeet: 0
    m_Mirror: 0
  m_EditorCurves: []
  m_EulerEditorCurves: []
  m_HasGenericRootTransform: 0
  m_HasMotionFloatCurves: 0
  m_Events: []
