%YAML 1.1
%TAG !u! tag:unity3d.com,2011:
--- !u!1 &3711056224608729667
GameObject:
  m_ObjectHideFlags: 0
  m_CorrespondingSourceObject: {fileID: 0}
  m_PrefabInstance: {fileID: 0}
  m_PrefabAsset: {fileID: 0}
  serializedVersion: 6
  m_Component:
  - component: {fileID: 7656937109464583611}
  - component: {fileID: 3213890626510566285}
  - component: {fileID: 5268355641212985415}
  m_Layer: 0
  m_Name: Layer1
  m_TagString: Untagged
  m_Icon: {fileID: 0}
  m_NavMeshLayer: 0
  m_StaticEditorFlags: 0
  m_IsActive: 1
--- !u!4 &7656937109464583611
Transform:
  m_ObjectHideFlags: 0
  m_CorrespondingSourceObject: {fileID: 0}
  m_PrefabInstance: {fileID: 0}
  m_PrefabAsset: {fileID: 0}
  m_GameObject: {fileID: 3711056224608729667}
  m_LocalRotation: {x: -0, y: -0, z: -0, w: 1}
  m_LocalPosition: {x: 0, y: 0, z: 0}
  m_LocalScale: {x: 1, y: 1, z: 1}
  m_ConstrainProportionsScale: 0
  m_Children: []
  m_Father: {fileID: 841607698169033123}
  m_RootOrder: 0
  m_LocalEulerAnglesHint: {x: 0, y: 0, z: 0}
--- !u!1839735485 &3213890626510566285
Tilemap:
  m_ObjectHideFlags: 0
  m_CorrespondingSourceObject: {fileID: 0}
  m_PrefabInstance: {fileID: 0}
  m_PrefabAsset: {fileID: 0}
  m_GameObject: {fileID: 3711056224608729667}
  m_Enabled: 1
  m_Tiles:
  - first: {x: 11, y: -4, z: 0}
    second:
      serializedVersion: 2
      m_TileIndex: 79
      m_TileSpriteIndex: 79
      m_TileMatrixIndex: 0
      m_TileColorIndex: 0
      m_TileObjectToInstantiateIndex: 65535
      dummyAlignment: 0
      m_AllTileFlags: 1073741825
  - first: {x: 12, y: -4, z: 0}
    second:
      serializedVersion: 2
      m_TileIndex: 80
      m_TileSpriteIndex: 80
      m_TileMatrixIndex: 0
      m_TileColorIndex: 0
      m_TileObjectToInstantiateIndex: 65535
      dummyAlignment: 0
      m_AllTileFlags: 1073741825
  - first: {x: 13, y: -4, z: 0}
    second:
      serializedVersion: 2
      m_TileIndex: 81
      m_TileSpriteIndex: 81
      m_TileMatrixIndex: 0
      m_TileColorIndex: 0
      m_TileObjectToInstantiateIndex: 65535
      dummyAlignment: 0
      m_AllTileFlags: 1073741825
  - first: {x: 14, y: -4, z: 0}
    second:
      serializedVersion: 2
      m_TileIndex: 82
      m_TileSpriteIndex: 82
      m_TileMatrixIndex: 0
      m_TileColorIndex: 0
      m_TileObjectToInstantiateIndex: 65535
      dummyAlignment: 0
      m_AllTileFlags: 1073741825
  - first: {x: 1, y: -3, z: 0}
    second:
      serializedVersion: 2
      m_TileIndex: 73
      m_TileSpriteIndex: 73
      m_TileMatrixIndex: 0
      m_TileColorIndex: 0
      m_TileObjectToInstantiateIndex: 65535
      dummyAlignment: 0
      m_AllTileFlags: 1073741825
  - first: {x: 4, y: -3, z: 0}
    second:
      serializedVersion: 2
      m_TileIndex: 74
      m_TileSpriteIndex: 74
      m_TileMatrixIndex: 0
      m_TileColorIndex: 0
      m_TileObjectToInstantiateIndex: 65535
      dummyAlignment: 0
      m_AllTileFlags: 1073741825
  - first: {x: 11, y: -3, z: 0}
    second:
      serializedVersion: 2
      m_TileIndex: 75
      m_TileSpriteIndex: 75
      m_TileMatrixIndex: 0
      m_TileColorIndex: 0
      m_TileObjectToInstantiateIndex: 65535
      dummyAlignment: 0
      m_AllTileFlags: 1073741825
  - first: {x: 12, y: -3, z: 0}
    second:
      serializedVersion: 2
      m_TileIndex: 76
      m_TileSpriteIndex: 76
      m_TileMatrixIndex: 0
      m_TileColorIndex: 0
      m_TileObjectToInstantiateIndex: 65535
      dummyAlignment: 0
      m_AllTileFlags: 1073741825
  - first: {x: 13, y: -3, z: 0}
    second:
      serializedVersion: 2
      m_TileIndex: 77
      m_TileSpriteIndex: 77
      m_TileMatrixIndex: 0
      m_TileColorIndex: 0
      m_TileObjectToInstantiateIndex: 65535
      dummyAlignment: 0
      m_AllTileFlags: 1073741825
  - first: {x: 14, y: -3, z: 0}
    second:
      serializedVersion: 2
      m_TileIndex: 78
      m_TileSpriteIndex: 78
      m_TileMatrixIndex: 0
      m_TileColorIndex: 0
      m_TileObjectToInstantiateIndex: 65535
      dummyAlignment: 0
      m_AllTileFlags: 1073741825
  - first: {x: -1, y: -2, z: 0}
    second:
      serializedVersion: 2
      m_TileIndex: 60
      m_TileSpriteIndex: 60
      m_TileMatrixIndex: 0
      m_TileColorIndex: 0
      m_TileObjectToInstantiateIndex: 65535
      dummyAlignment: 0
      m_AllTileFlags: 1073741825
  - first: {x: 0, y: -2, z: 0}
    second:
      serializedVersion: 2
      m_TileIndex: 61
      m_TileSpriteIndex: 61
      m_TileMatrixIndex: 0
      m_TileColorIndex: 0
      m_TileObjectToInstantiateIndex: 65535
      dummyAlignment: 0
      m_AllTileFlags: 1073741825
  - first: {x: 1, y: -2, z: 0}
    second:
      serializedVersion: 2
      m_TileIndex: 62
      m_TileSpriteIndex: 62
      m_TileMatrixIndex: 0
      m_TileColorIndex: 0
      m_TileObjectToInstantiateIndex: 65535
      dummyAlignment: 0
      m_AllTileFlags: 1073741825
  - first: {x: 2, y: -2, z: 0}
    second:
      serializedVersion: 2
      m_TileIndex: 63
      m_TileSpriteIndex: 63
      m_TileMatrixIndex: 0
      m_TileColorIndex: 0
      m_TileObjectToInstantiateIndex: 65535
      dummyAlignment: 0
      m_AllTileFlags: 1073741825
  - first: {x: 3, y: -2, z: 0}
    second:
      serializedVersion: 2
      m_TileIndex: 64
      m_TileSpriteIndex: 64
      m_TileMatrixIndex: 0
      m_TileColorIndex: 0
      m_TileObjectToInstantiateIndex: 65535
      dummyAlignment: 0
      m_AllTileFlags: 1073741825
  - first: {x: 4, y: -2, z: 0}
    second:
      serializedVersion: 2
      m_TileIndex: 65
      m_TileSpriteIndex: 65
      m_TileMatrixIndex: 0
      m_TileColorIndex: 0
      m_TileObjectToInstantiateIndex: 65535
      dummyAlignment: 0
      m_AllTileFlags: 1073741825
  - first: {x: 5, y: -2, z: 0}
    second:
      serializedVersion: 2
      m_TileIndex: 66
      m_TileSpriteIndex: 66
      m_TileMatrixIndex: 0
      m_TileColorIndex: 0
      m_TileObjectToInstantiateIndex: 65535
      dummyAlignment: 0
      m_AllTileFlags: 1073741825
  - first: {x: 9, y: -2, z: 0}
    second:
      serializedVersion: 2
      m_TileIndex: 67
      m_TileSpriteIndex: 67
      m_TileMatrixIndex: 0
      m_TileColorIndex: 0
      m_TileObjectToInstantiateIndex: 65535
      dummyAlignment: 0
      m_AllTileFlags: 1073741825
  - first: {x: 10, y: -2, z: 0}
    second:
      serializedVersion: 2
      m_TileIndex: 68
      m_TileSpriteIndex: 68
      m_TileMatrixIndex: 0
      m_TileColorIndex: 0
      m_TileObjectToInstantiateIndex: 65535
      dummyAlignment: 0
      m_AllTileFlags: 1073741825
  - first: {x: 11, y: -2, z: 0}
    second:
      serializedVersion: 2
      m_TileIndex: 69
      m_TileSpriteIndex: 69
      m_TileMatrixIndex: 0
      m_TileColorIndex: 0
      m_TileObjectToInstantiateIndex: 65535
      dummyAlignment: 0
      m_AllTileFlags: 1073741825
  - first: {x: 12, y: -2, z: 0}
    second:
      serializedVersion: 2
      m_TileIndex: 70
      m_TileSpriteIndex: 70
      m_TileMatrixIndex: 0
      m_TileColorIndex: 0
      m_TileObjectToInstantiateIndex: 65535
      dummyAlignment: 0
      m_AllTileFlags: 1073741825
  - first: {x: 13, y: -2, z: 0}
    second:
      serializedVersion: 2
      m_TileIndex: 71
      m_TileSpriteIndex: 71
      m_TileMatrixIndex: 0
      m_TileColorIndex: 0
      m_TileObjectToInstantiateIndex: 65535
      dummyAlignment: 0
      m_AllTileFlags: 1073741825
  - first: {x: 14, y: -2, z: 0}
    second:
      serializedVersion: 2
      m_TileIndex: 72
      m_TileSpriteIndex: 72
      m_TileMatrixIndex: 0
      m_TileColorIndex: 0
      m_TileObjectToInstantiateIndex: 65535
      dummyAlignment: 0
      m_AllTileFlags: 1073741825
  - first: {x: -1, y: -1, z: 0}
    second:
      serializedVersion: 2
      m_TileIndex: 46
      m_TileSpriteIndex: 46
      m_TileMatrixIndex: 0
      m_TileColorIndex: 0
      m_TileObjectToInstantiateIndex: 65535
      dummyAlignment: 0
      m_AllTileFlags: 1073741825
  - first: {x: 0, y: -1, z: 0}
    second:
      serializedVersion: 2
      m_TileIndex: 47
      m_TileSpriteIndex: 47
      m_TileMatrixIndex: 0
      m_TileColorIndex: 0
      m_TileObjectToInstantiateIndex: 65535
      dummyAlignment: 0
      m_AllTileFlags: 1073741825
  - first: {x: 3, y: -1, z: 0}
    second:
      serializedVersion: 2
      m_TileIndex: 48
      m_TileSpriteIndex: 48
      m_TileMatrixIndex: 0
      m_TileColorIndex: 0
      m_TileObjectToInstantiateIndex: 65535
      dummyAlignment: 0
      m_AllTileFlags: 1073741825
  - first: {x: 4, y: -1, z: 0}
    second:
      serializedVersion: 2
      m_TileIndex: 49
      m_TileSpriteIndex: 49
      m_TileMatrixIndex: 0
      m_TileColorIndex: 0
      m_TileObjectToInstantiateIndex: 65535
      dummyAlignment: 0
      m_AllTileFlags: 1073741825
  - first: {x: 5, y: -1, z: 0}
    second:
      serializedVersion: 2
      m_TileIndex: 50
      m_TileSpriteIndex: 50
      m_TileMatrixIndex: 0
      m_TileColorIndex: 0
      m_TileObjectToInstantiateIndex: 65535
      dummyAlignment: 0
      m_AllTileFlags: 1073741825
  - first: {x: 6, y: -1, z: 0}
    second:
      serializedVersion: 2
      m_TileIndex: 51
      m_TileSpriteIndex: 51
      m_TileMatrixIndex: 0
      m_TileColorIndex: 0
      m_TileObjectToInstantiateIndex: 65535
      dummyAlignment: 0
      m_AllTileFlags: 1073741825
  - first: {x: 7, y: -1, z: 0}
    second:
      serializedVersion: 2
      m_TileIndex: 52
      m_TileSpriteIndex: 52
      m_TileMatrixIndex: 0
      m_TileColorIndex: 0
      m_TileObjectToInstantiateIndex: 65535
      dummyAlignment: 0
      m_AllTileFlags: 1073741825
  - first: {x: 8, y: -1, z: 0}
    second:
      serializedVersion: 2
      m_TileIndex: 53
      m_TileSpriteIndex: 53
      m_TileMatrixIndex: 0
      m_TileColorIndex: 0
      m_TileObjectToInstantiateIndex: 65535
      dummyAlignment: 0
      m_AllTileFlags: 1073741825
  - first: {x: 9, y: -1, z: 0}
    second:
      serializedVersion: 2
      m_TileIndex: 54
      m_TileSpriteIndex: 54
      m_TileMatrixIndex: 0
      m_TileColorIndex: 0
      m_TileObjectToInstantiateIndex: 65535
      dummyAlignment: 0
      m_AllTileFlags: 1073741825
  - first: {x: 10, y: -1, z: 0}
    second:
      serializedVersion: 2
      m_TileIndex: 55
      m_TileSpriteIndex: 55
      m_TileMatrixIndex: 0
      m_TileColorIndex: 0
      m_TileObjectToInstantiateIndex: 65535
      dummyAlignment: 0
      m_AllTileFlags: 1073741825
  - first: {x: 11, y: -1, z: 0}
    second:
      serializedVersion: 2
      m_TileIndex: 56
      m_TileSpriteIndex: 56
      m_TileMatrixIndex: 0
      m_TileColorIndex: 0
      m_TileObjectToInstantiateIndex: 65535
      dummyAlignment: 0
      m_AllTileFlags: 1073741825
  - first: {x: 12, y: -1, z: 0}
    second:
      serializedVersion: 2
      m_TileIndex: 57
      m_TileSpriteIndex: 57
      m_TileMatrixIndex: 0
      m_TileColorIndex: 0
      m_TileObjectToInstantiateIndex: 65535
      dummyAlignment: 0
      m_AllTileFlags: 1073741825
  - first: {x: 13, y: -1, z: 0}
    second:
      serializedVersion: 2
      m_TileIndex: 58
      m_TileSpriteIndex: 58
      m_TileMatrixIndex: 0
      m_TileColorIndex: 0
      m_TileObjectToInstantiateIndex: 65535
      dummyAlignment: 0
      m_AllTileFlags: 1073741825
  - first: {x: 14, y: -1, z: 0}
    second:
      serializedVersion: 2
      m_TileIndex: 59
      m_TileSpriteIndex: 59
      m_TileMatrixIndex: 0
      m_TileColorIndex: 0
      m_TileObjectToInstantiateIndex: 65535
      dummyAlignment: 0
      m_AllTileFlags: 1073741825
  - first: {x: -1, y: 0, z: 0}
    second:
      serializedVersion: 2
      m_TileIndex: 30
      m_TileSpriteIndex: 30
      m_TileMatrixIndex: 0
      m_TileColorIndex: 0
      m_TileObjectToInstantiateIndex: 65535
      dummyAlignment: 0
      m_AllTileFlags: 1073741825
  - first: {x: 0, y: 0, z: 0}
    second:
      serializedVersion: 2
      m_TileIndex: 31
      m_TileSpriteIndex: 31
      m_TileMatrixIndex: 0
      m_TileColorIndex: 0
      m_TileObjectToInstantiateIndex: 65535
      dummyAlignment: 0
      m_AllTileFlags: 1073741825
  - first: {x: 1, y: 0, z: 0}
    second:
      serializedVersion: 2
      m_TileIndex: 32
      m_TileSpriteIndex: 32
      m_TileMatrixIndex: 0
      m_TileColorIndex: 0
      m_TileObjectToInstantiateIndex: 65535
      dummyAlignment: 0
      m_AllTileFlags: 1073741825
  - first: {x: 2, y: 0, z: 0}
    second:
      serializedVersion: 2
      m_TileIndex: 33
      m_TileSpriteIndex: 33
      m_TileMatrixIndex: 0
      m_TileColorIndex: 0
      m_TileObjectToInstantiateIndex: 65535
      dummyAlignment: 0
      m_AllTileFlags: 1073741825
  - first: {x: 3, y: 0, z: 0}
    second:
      serializedVersion: 2
      m_TileIndex: 34
      m_TileSpriteIndex: 34
      m_TileMatrixIndex: 0
      m_TileColorIndex: 0
      m_TileObjectToInstantiateIndex: 65535
      dummyAlignment: 0
      m_AllTileFlags: 1073741825
  - first: {x: 4, y: 0, z: 0}
    second:
      serializedVersion: 2
      m_TileIndex: 35
      m_TileSpriteIndex: 35
      m_TileMatrixIndex: 0
      m_TileColorIndex: 0
      m_TileObjectToInstantiateIndex: 65535
      dummyAlignment: 0
      m_AllTileFlags: 1073741825
  - first: {x: 5, y: 0, z: 0}
    second:
      serializedVersion: 2
      m_TileIndex: 36
      m_TileSpriteIndex: 36
      m_TileMatrixIndex: 0
      m_TileColorIndex: 0
      m_TileObjectToInstantiateIndex: 65535
      dummyAlignment: 0
      m_AllTileFlags: 1073741825
  - first: {x: 6, y: 0, z: 0}
    second:
      serializedVersion: 2
      m_TileIndex: 37
      m_TileSpriteIndex: 37
      m_TileMatrixIndex: 0
      m_TileColorIndex: 0
      m_TileObjectToInstantiateIndex: 65535
      dummyAlignment: 0
      m_AllTileFlags: 1073741825
  - first: {x: 7, y: 0, z: 0}
    second:
      serializedVersion: 2
      m_TileIndex: 38
      m_TileSpriteIndex: 38
      m_TileMatrixIndex: 0
      m_TileColorIndex: 0
      m_TileObjectToInstantiateIndex: 65535
      dummyAlignment: 0
      m_AllTileFlags: 1073741825
  - first: {x: 8, y: 0, z: 0}
    second:
      serializedVersion: 2
      m_TileIndex: 39
      m_TileSpriteIndex: 39
      m_TileMatrixIndex: 0
      m_TileColorIndex: 0
      m_TileObjectToInstantiateIndex: 65535
      dummyAlignment: 0
      m_AllTileFlags: 1073741825
  - first: {x: 9, y: 0, z: 0}
    second:
      serializedVersion: 2
      m_TileIndex: 40
      m_TileSpriteIndex: 40
      m_TileMatrixIndex: 0
      m_TileColorIndex: 0
      m_TileObjectToInstantiateIndex: 65535
      dummyAlignment: 0
      m_AllTileFlags: 1073741825
  - first: {x: 10, y: 0, z: 0}
    second:
      serializedVersion: 2
      m_TileIndex: 41
      m_TileSpriteIndex: 41
      m_TileMatrixIndex: 0
      m_TileColorIndex: 0
      m_TileObjectToInstantiateIndex: 65535
      dummyAlignment: 0
      m_AllTileFlags: 1073741825
  - first: {x: 11, y: 0, z: 0}
    second:
      serializedVersion: 2
      m_TileIndex: 42
      m_TileSpriteIndex: 42
      m_TileMatrixIndex: 0
      m_TileColorIndex: 0
      m_TileObjectToInstantiateIndex: 65535
      dummyAlignment: 0
      m_AllTileFlags: 1073741825
  - first: {x: 12, y: 0, z: 0}
    second:
      serializedVersion: 2
      m_TileIndex: 43
      m_TileSpriteIndex: 43
      m_TileMatrixIndex: 0
      m_TileColorIndex: 0
      m_TileObjectToInstantiateIndex: 65535
      dummyAlignment: 0
      m_AllTileFlags: 1073741825
  - first: {x: 13, y: 0, z: 0}
    second:
      serializedVersion: 2
      m_TileIndex: 44
      m_TileSpriteIndex: 44
      m_TileMatrixIndex: 0
      m_TileColorIndex: 0
      m_TileObjectToInstantiateIndex: 65535
      dummyAlignment: 0
      m_AllTileFlags: 1073741825
  - first: {x: 14, y: 0, z: 0}
    second:
      serializedVersion: 2
      m_TileIndex: 45
      m_TileSpriteIndex: 45
      m_TileMatrixIndex: 0
      m_TileColorIndex: 0
      m_TileObjectToInstantiateIndex: 65535
      dummyAlignment: 0
      m_AllTileFlags: 1073741825
  - first: {x: -1, y: 1, z: 0}
    second:
      serializedVersion: 2
      m_TileIndex: 15
      m_TileSpriteIndex: 15
      m_TileMatrixIndex: 0
      m_TileColorIndex: 0
      m_TileObjectToInstantiateIndex: 65535
      dummyAlignment: 0
      m_AllTileFlags: 1073741825
  - first: {x: 0, y: 1, z: 0}
    second:
      serializedVersion: 2
      m_TileIndex: 16
      m_TileSpriteIndex: 16
      m_TileMatrixIndex: 0
      m_TileColorIndex: 0
      m_TileObjectToInstantiateIndex: 65535
      dummyAlignment: 0
      m_AllTileFlags: 1073741825
  - first: {x: 1, y: 1, z: 0}
    second:
      serializedVersion: 2
      m_TileIndex: 17
      m_TileSpriteIndex: 17
      m_TileMatrixIndex: 0
      m_TileColorIndex: 0
      m_TileObjectToInstantiateIndex: 65535
      dummyAlignment: 0
      m_AllTileFlags: 1073741825
  - first: {x: 3, y: 1, z: 0}
    second:
      serializedVersion: 2
      m_TileIndex: 18
      m_TileSpriteIndex: 18
      m_TileMatrixIndex: 0
      m_TileColorIndex: 0
      m_TileObjectToInstantiateIndex: 65535
      dummyAlignment: 0
      m_AllTileFlags: 1073741825
  - first: {x: 4, y: 1, z: 0}
    second:
      serializedVersion: 2
      m_TileIndex: 19
      m_TileSpriteIndex: 19
      m_TileMatrixIndex: 0
      m_TileColorIndex: 0
      m_TileObjectToInstantiateIndex: 65535
      dummyAlignment: 0
      m_AllTileFlags: 1073741825
  - first: {x: 5, y: 1, z: 0}
    second:
      serializedVersion: 2
      m_TileIndex: 20
      m_TileSpriteIndex: 20
      m_TileMatrixIndex: 0
      m_TileColorIndex: 0
      m_TileObjectToInstantiateIndex: 65535
      dummyAlignment: 0
      m_AllTileFlags: 1073741825
  - first: {x: 6, y: 1, z: 0}
    second:
      serializedVersion: 2
      m_TileIndex: 21
      m_TileSpriteIndex: 21
      m_TileMatrixIndex: 0
      m_TileColorIndex: 0
      m_TileObjectToInstantiateIndex: 65535
      dummyAlignment: 0
      m_AllTileFlags: 1073741825
  - first: {x: 7, y: 1, z: 0}
    second:
      serializedVersion: 2
      m_TileIndex: 22
      m_TileSpriteIndex: 22
      m_TileMatrixIndex: 0
      m_TileColorIndex: 0
      m_TileObjectToInstantiateIndex: 65535
      dummyAlignment: 0
      m_AllTileFlags: 1073741825
  - first: {x: 8, y: 1, z: 0}
    second:
      serializedVersion: 2
      m_TileIndex: 23
      m_TileSpriteIndex: 23
      m_TileMatrixIndex: 0
      m_TileColorIndex: 0
      m_TileObjectToInstantiateIndex: 65535
      dummyAlignment: 0
      m_AllTileFlags: 1073741825
  - first: {x: 9, y: 1, z: 0}
    second:
      serializedVersion: 2
      m_TileIndex: 24
      m_TileSpriteIndex: 24
      m_TileMatrixIndex: 0
      m_TileColorIndex: 0
      m_TileObjectToInstantiateIndex: 65535
      dummyAlignment: 0
      m_AllTileFlags: 1073741825
  - first: {x: 10, y: 1, z: 0}
    second:
      serializedVersion: 2
      m_TileIndex: 25
      m_TileSpriteIndex: 25
      m_TileMatrixIndex: 0
      m_TileColorIndex: 0
      m_TileObjectToInstantiateIndex: 65535
      dummyAlignment: 0
      m_AllTileFlags: 1073741825
  - first: {x: 11, y: 1, z: 0}
    second:
      serializedVersion: 2
      m_TileIndex: 26
      m_TileSpriteIndex: 26
      m_TileMatrixIndex: 0
      m_TileColorIndex: 0
      m_TileObjectToInstantiateIndex: 65535
      dummyAlignment: 0
      m_AllTileFlags: 1073741825
  - first: {x: 12, y: 1, z: 0}
    second:
      serializedVersion: 2
      m_TileIndex: 27
      m_TileSpriteIndex: 27
      m_TileMatrixIndex: 0
      m_TileColorIndex: 0
      m_TileObjectToInstantiateIndex: 65535
      dummyAlignment: 0
      m_AllTileFlags: 1073741825
  - first: {x: 13, y: 1, z: 0}
    second:
      serializedVersion: 2
      m_TileIndex: 28
      m_TileSpriteIndex: 28
      m_TileMatrixIndex: 0
      m_TileColorIndex: 0
      m_TileObjectToInstantiateIndex: 65535
      dummyAlignment: 0
      m_AllTileFlags: 1073741825
  - first: {x: 14, y: 1, z: 0}
    second:
      serializedVersion: 2
      m_TileIndex: 29
      m_TileSpriteIndex: 29
      m_TileMatrixIndex: 0
      m_TileColorIndex: 0
      m_TileObjectToInstantiateIndex: 65535
      dummyAlignment: 0
      m_AllTileFlags: 1073741825
  - first: {x: 0, y: 2, z: 0}
    second:
      serializedVersion: 2
      m_TileIndex: 0
      m_TileSpriteIndex: 0
      m_TileMatrixIndex: 0
      m_TileColorIndex: 0
      m_TileObjectToInstantiateIndex: 65535
      dummyAlignment: 0
      m_AllTileFlags: 1073741825
  - first: {x: 1, y: 2, z: 0}
    second:
      serializedVersion: 2
      m_TileIndex: 1
      m_TileSpriteIndex: 1
      m_TileMatrixIndex: 0
      m_TileColorIndex: 0
      m_TileObjectToInstantiateIndex: 65535
      dummyAlignment: 0
      m_AllTileFlags: 1073741825
  - first: {x: 2, y: 2, z: 0}
    second:
      serializedVersion: 2
      m_TileIndex: 2
      m_TileSpriteIndex: 2
      m_TileMatrixIndex: 0
      m_TileColorIndex: 0
      m_TileObjectToInstantiateIndex: 65535
      dummyAlignment: 0
      m_AllTileFlags: 1073741825
  - first: {x: 3, y: 2, z: 0}
    second:
      serializedVersion: 2
      m_TileIndex: 3
      m_TileSpriteIndex: 3
      m_TileMatrixIndex: 0
      m_TileColorIndex: 0
      m_TileObjectToInstantiateIndex: 65535
      dummyAlignment: 0
      m_AllTileFlags: 1073741825
  - first: {x: 4, y: 2, z: 0}
    second:
      serializedVersion: 2
      m_TileIndex: 4
      m_TileSpriteIndex: 4
      m_TileMatrixIndex: 0
      m_TileColorIndex: 0
      m_TileObjectToInstantiateIndex: 65535
      dummyAlignment: 0
      m_AllTileFlags: 1073741825
  - first: {x: 5, y: 2, z: 0}
    second:
      serializedVersion: 2
      m_TileIndex: 5
      m_TileSpriteIndex: 5
      m_TileMatrixIndex: 0
      m_TileColorIndex: 0
      m_TileObjectToInstantiateIndex: 65535
      dummyAlignment: 0
      m_AllTileFlags: 1073741825
  - first: {x: 6, y: 2, z: 0}
    second:
      serializedVersion: 2
      m_TileIndex: 6
      m_TileSpriteIndex: 6
      m_TileMatrixIndex: 0
      m_TileColorIndex: 0
      m_TileObjectToInstantiateIndex: 65535
      dummyAlignment: 0
      m_AllTileFlags: 1073741825
  - first: {x: 7, y: 2, z: 0}
    second:
      serializedVersion: 2
      m_TileIndex: 7
      m_TileSpriteIndex: 7
      m_TileMatrixIndex: 0
      m_TileColorIndex: 0
      m_TileObjectToInstantiateIndex: 65535
      dummyAlignment: 0
      m_AllTileFlags: 1073741825
  - first: {x: 8, y: 2, z: 0}
    second:
      serializedVersion: 2
      m_TileIndex: 8
      m_TileSpriteIndex: 8
      m_TileMatrixIndex: 0
      m_TileColorIndex: 0
      m_TileObjectToInstantiateIndex: 65535
      dummyAlignment: 0
      m_AllTileFlags: 1073741825
  - first: {x: 9, y: 2, z: 0}
    second:
      serializedVersion: 2
      m_TileIndex: 9
      m_TileSpriteIndex: 9
      m_TileMatrixIndex: 0
      m_TileColorIndex: 0
      m_TileObjectToInstantiateIndex: 65535
      dummyAlignment: 0
      m_AllTileFlags: 1073741825
  - first: {x: 10, y: 2, z: 0}
    second:
      serializedVersion: 2
      m_TileIndex: 10
      m_TileSpriteIndex: 10
      m_TileMatrixIndex: 0
      m_TileColorIndex: 0
      m_TileObjectToInstantiateIndex: 65535
      dummyAlignment: 0
      m_AllTileFlags: 1073741825
  - first: {x: 11, y: 2, z: 0}
    second:
      serializedVersion: 2
      m_TileIndex: 11
      m_TileSpriteIndex: 11
      m_TileMatrixIndex: 0
      m_TileColorIndex: 0
      m_TileObjectToInstantiateIndex: 65535
      dummyAlignment: 0
      m_AllTileFlags: 1073741825
  - first: {x: 12, y: 2, z: 0}
    second:
      serializedVersion: 2
      m_TileIndex: 12
      m_TileSpriteIndex: 12
      m_TileMatrixIndex: 0
      m_TileColorIndex: 0
      m_TileObjectToInstantiateIndex: 65535
      dummyAlignment: 0
      m_AllTileFlags: 1073741825
  - first: {x: 13, y: 2, z: 0}
    second:
      serializedVersion: 2
      m_TileIndex: 13
      m_TileSpriteIndex: 13
      m_TileMatrixIndex: 0
      m_TileColorIndex: 0
      m_TileObjectToInstantiateIndex: 65535
      dummyAlignment: 0
      m_AllTileFlags: 1073741825
  - first: {x: 14, y: 2, z: 0}
    second:
      serializedVersion: 2
      m_TileIndex: 14
      m_TileSpriteIndex: 14
      m_TileMatrixIndex: 0
      m_TileColorIndex: 0
      m_TileObjectToInstantiateIndex: 65535
      dummyAlignment: 0
      m_AllTileFlags: 1073741825
  m_AnimatedTiles: {}
  m_TileAssetArray:
  - m_RefCount: 1
    m_Data: {fileID: 11400000, guid: a2a047a810b46b64fa16f33f2e7affda, type: 2}
  - m_RefCount: 1
    m_Data: {fileID: 11400000, guid: 408932ba041e88143ade75109ecc5ada, type: 2}
  - m_RefCount: 1
    m_Data: {fileID: 11400000, guid: 8e4d3b29e1671df409323608487ea8ef, type: 2}
  - m_RefCount: 1
    m_Data: {fileID: 11400000, guid: 9c9ac2b89ae82324382d155e750c8549, type: 2}
  - m_RefCount: 1
    m_Data: {fileID: 11400000, guid: bedf5bd9991d31749a9e8301ba18509d, type: 2}
  - m_RefCount: 1
    m_Data: {fileID: 11400000, guid: 7e95af270527f3e4e87299a6df761734, type: 2}
  - m_RefCount: 1
    m_Data: {fileID: 11400000, guid: 5851f664c91353f4db293331dd8708e8, type: 2}
  - m_RefCount: 1
    m_Data: {fileID: 11400000, guid: ddca501919e18ea48b83f6aeb888a35f, type: 2}
  - m_RefCount: 1
    m_Data: {fileID: 11400000, guid: 38ad8a20fe221ac469b2d6fab09e8b4f, type: 2}
  - m_RefCount: 1
    m_Data: {fileID: 11400000, guid: 88b3b03b66dc58f43b9f62c7b3df8e19, type: 2}
  - m_RefCount: 1
    m_Data: {fileID: 11400000, guid: 2a53cb7b6c354fd41ac26818fd68d9a2, type: 2}
  - m_RefCount: 1
    m_Data: {fileID: 11400000, guid: aa2563a6b7e9dfe44bb9dace8dec4412, type: 2}
  - m_RefCount: 1
    m_Data: {fileID: 11400000, guid: f404264f51a1d3e41b4b3c5aed3db6fc, type: 2}
  - m_RefCount: 1
    m_Data: {fileID: 11400000, guid: ff47f560d4bb57c49bdd70b82d4c4fdc, type: 2}
  - m_RefCount: 1
    m_Data: {fileID: 11400000, guid: 4f49935863d9fe7409ea176bbabdf41d, type: 2}
  - m_RefCount: 1
    m_Data: {fileID: 11400000, guid: 68de8427146344b4db667abde95099d2, type: 2}
  - m_RefCount: 1
    m_Data: {fileID: 11400000, guid: 61efff8689cf5b24f8f1e49487456daa, type: 2}
  - m_RefCount: 1
    m_Data: {fileID: 11400000, guid: 3b845c19f1ef1d74f84f9caf27e801d2, type: 2}
  - m_RefCount: 1
    m_Data: {fileID: 11400000, guid: 6bc34441db0b9954881f7bb687938af1, type: 2}
  - m_RefCount: 1
    m_Data: {fileID: 11400000, guid: f17744ee4aff79648b14d1a6129bd047, type: 2}
  - m_RefCount: 1
    m_Data: {fileID: 11400000, guid: 15735e48575e4cc40a18dd0a44b815f6, type: 2}
  - m_RefCount: 1
    m_Data: {fileID: 11400000, guid: 0d2f654b2139d574e837ac6d737de99f, type: 2}
  - m_RefCount: 1
    m_Data: {fileID: 11400000, guid: 34ae5552ce2140c4a99d8782c559ab42, type: 2}
  - m_RefCount: 1
    m_Data: {fileID: 11400000, guid: deaf29f99796d5348b7a9046f1b7bd30, type: 2}
  - m_RefCount: 1
    m_Data: {fileID: 11400000, guid: 102fa040a9cfe044591eff7e594fc38b, type: 2}
  - m_RefCount: 1
    m_Data: {fileID: 11400000, guid: 64ad9b50af3ddea4cb021d2063f06813, type: 2}
  - m_RefCount: 1
    m_Data: {fileID: 11400000, guid: a6738a6269af94342ac4692b72b8e811, type: 2}
  - m_RefCount: 1
    m_Data: {fileID: 11400000, guid: 840d902451c3b9b4b9808b0ad511ce83, type: 2}
  - m_RefCount: 1
    m_Data: {fileID: 11400000, guid: 9c6682e053964164f888868a271ff811, type: 2}
  - m_RefCount: 1
    m_Data: {fileID: 11400000, guid: fc5a1960d8d83084e8d52a1e7d42ee16, type: 2}
  - m_RefCount: 1
    m_Data: {fileID: 11400000, guid: 976e66356173a4e4fb5403f63edbc498, type: 2}
  - m_RefCount: 1
    m_Data: {fileID: 11400000, guid: 3a086fdcfa14a3648a2ab4429689fcb5, type: 2}
  - m_RefCount: 1
    m_Data: {fileID: 11400000, guid: a1f95ff17dfdeb24ea5b8f589c9b29d5, type: 2}
  - m_RefCount: 1
    m_Data: {fileID: 11400000, guid: 52c750a8adce0f34d9ca3e0bb306f4d3, type: 2}
  - m_RefCount: 1
    m_Data: {fileID: 11400000, guid: 7964d34b128d318419a844d51ca89de9, type: 2}
  - m_RefCount: 1
    m_Data: {fileID: 11400000, guid: c941426efbde0da4191032fc1cb513f7, type: 2}
  - m_RefCount: 1
    m_Data: {fileID: 11400000, guid: 009fecebea710fd4ea8e0d02ba738074, type: 2}
  - m_RefCount: 1
    m_Data: {fileID: 11400000, guid: 3625e1a62a55d574b8e307e63444e138, type: 2}
  - m_RefCount: 1
    m_Data: {fileID: 11400000, guid: f52e0183b64cf6843b774b30f1e7fd5a, type: 2}
  - m_RefCount: 1
    m_Data: {fileID: 11400000, guid: 2a8ea41584c13b24387306757dbedab8, type: 2}
  - m_RefCount: 1
    m_Data: {fileID: 11400000, guid: 27b65f029555dc64f9d329339c944d03, type: 2}
  - m_RefCount: 1
    m_Data: {fileID: 11400000, guid: 73b7bbd92dc503748823d29dd40ef123, type: 2}
  - m_RefCount: 1
    m_Data: {fileID: 11400000, guid: b82a0a7d09273f34490f0a17ca362816, type: 2}
  - m_RefCount: 1
    m_Data: {fileID: 11400000, guid: 81eaee1fa255b7a46b70c871395ca779, type: 2}
  - m_RefCount: 1
    m_Data: {fileID: 11400000, guid: 1b02f6d1a8128724db5e6f2621eb1dfa, type: 2}
  - m_RefCount: 1
    m_Data: {fileID: 11400000, guid: 33af46610df7b094199a6dad0ca921be, type: 2}
  - m_RefCount: 1
    m_Data: {fileID: 11400000, guid: 4f41705fa11b7b244aeb7e0fa1f05e24, type: 2}
  - m_RefCount: 1
    m_Data: {fileID: 11400000, guid: a89b1efac4ca2404cac94bbb6661b236, type: 2}
  - m_RefCount: 1
    m_Data: {fileID: 11400000, guid: 4bd839ebfb3cce642bba59ae07d779b6, type: 2}
  - m_RefCount: 1
    m_Data: {fileID: 11400000, guid: 21e66a7ee71c14246afe35f7c749a83d, type: 2}
  - m_RefCount: 1
    m_Data: {fileID: 11400000, guid: 20dd029fbd52bd34e8dca36e5fc4c373, type: 2}
  - m_RefCount: 1
    m_Data: {fileID: 11400000, guid: e79754e6a73a35b418c9796737ea04a5, type: 2}
  - m_RefCount: 1
    m_Data: {fileID: 11400000, guid: 00ded80cfe3e5374c9d27598e71ddd40, type: 2}
  - m_RefCount: 1
    m_Data: {fileID: 11400000, guid: ddc85ab3eb7b449488897322dbdabb99, type: 2}
  - m_RefCount: 1
    m_Data: {fileID: 11400000, guid: dd121c8a97faf214fbd95c870f2500be, type: 2}
  - m_RefCount: 1
    m_Data: {fileID: 11400000, guid: b7e2ec038b87b5b42a33a1a0f3b7d249, type: 2}
  - m_RefCount: 1
    m_Data: {fileID: 11400000, guid: d9cc8bada3febaf4f83d8873a626780a, type: 2}
  - m_RefCount: 1
    m_Data: {fileID: 11400000, guid: 5c3f362b88247f94e9856f1628421f49, type: 2}
  - m_RefCount: 1
    m_Data: {fileID: 11400000, guid: bfc4f7325db449141a0d05ada180a801, type: 2}
  - m_RefCount: 1
    m_Data: {fileID: 11400000, guid: 64865db1073471d498fa75ea74cd2567, type: 2}
  - m_RefCount: 1
    m_Data: {fileID: 11400000, guid: e5189c6644eadb249a5236d5d302444e, type: 2}
  - m_RefCount: 1
    m_Data: {fileID: 11400000, guid: 6d602a62924155246bfb49f488d574d9, type: 2}
  - m_RefCount: 1
    m_Data: {fileID: 11400000, guid: 0164cdfdda8254a4e965e7646e164f2d, type: 2}
  - m_RefCount: 1
    m_Data: {fileID: 11400000, guid: f41127f39df43b64eba5b2d740e214b9, type: 2}
  - m_RefCount: 1
    m_Data: {fileID: 11400000, guid: 02e1cd3eb54968043b01b244f263e7fb, type: 2}
  - m_RefCount: 1
    m_Data: {fileID: 11400000, guid: e184b5b65c93ac44283f1fd1eb14ed46, type: 2}
  - m_RefCount: 1
    m_Data: {fileID: 11400000, guid: c17ed1ad240e6e249887bfce76262714, type: 2}
  - m_RefCount: 1
    m_Data: {fileID: 11400000, guid: 2bbe508beae6c0847aa9d3cbb4f7fc18, type: 2}
  - m_RefCount: 1
    m_Data: {fileID: 11400000, guid: ccdc8801dec507d49a7c72a572761e56, type: 2}
  - m_RefCount: 1
    m_Data: {fileID: 11400000, guid: 1bae9eb456abdbf4a85d5f1a97d177ff, type: 2}
  - m_RefCount: 1
    m_Data: {fileID: 11400000, guid: 294e9a2aa44d48344bb154a631b8a7ae, type: 2}
  - m_RefCount: 1
    m_Data: {fileID: 11400000, guid: 8d4e22b633716d44c9a7845f38cca099, type: 2}
  - m_RefCount: 1
    m_Data: {fileID: 11400000, guid: e2c9133d7c2b571478e5411f21b93d66, type: 2}
  - m_RefCount: 1
    m_Data: {fileID: 11400000, guid: b1320866ecc66064c8e491c9e647b62c, type: 2}
  - m_RefCount: 1
    m_Data: {fileID: 11400000, guid: 2e1d592b356edae4b9c40b28678e9806, type: 2}
  - m_RefCount: 1
    m_Data: {fileID: 11400000, guid: 94f881447df426b43a2048b2537c4378, type: 2}
  - m_RefCount: 1
    m_Data: {fileID: 11400000, guid: 4ec33ccc3153a9d45a2dd856943fc9b3, type: 2}
  - m_RefCount: 1
    m_Data: {fileID: 11400000, guid: b9c800fd015f5d44dae453cbd30287c5, type: 2}
  - m_RefCount: 1
    m_Data: {fileID: 11400000, guid: 41994b0cef26f6f44a6a4e97692e7d6a, type: 2}
  - m_RefCount: 1
    m_Data: {fileID: 11400000, guid: 8597007be423a2f42a919012faaca6ee, type: 2}
  - m_RefCount: 1
    m_Data: {fileID: 11400000, guid: 903c457bab8ad9a46838dc9da4dea57c, type: 2}
  - m_RefCount: 1
    m_Data: {fileID: 11400000, guid: ef6871e70f3cb854eb26720e8f1608c9, type: 2}
  - m_RefCount: 1
    m_Data: {fileID: 11400000, guid: 8e9dce33a71638c4d91deba16146a69c, type: 2}
  m_TileSpriteArray:
  - m_RefCount: 1
    m_Data: {fileID: 1160573530735891299, guid: 7176edf8b0389e74f89300594e73c7cb, type: 3}
  - m_RefCount: 1
    m_Data: {fileID: 6328164940369298098, guid: 7176edf8b0389e74f89300594e73c7cb, type: 3}
  - m_RefCount: 1
    m_Data: {fileID: 5581608866672939240, guid: 7176edf8b0389e74f89300594e73c7cb, type: 3}
  - m_RefCount: 1
    m_Data: {fileID: 168055163509954808, guid: 7176edf8b0389e74f89300594e73c7cb, type: 3}
  - m_RefCount: 1
    m_Data: {fileID: -6910787194161817419, guid: 7176edf8b0389e74f89300594e73c7cb, type: 3}
  - m_RefCount: 1
    m_Data: {fileID: 2193677452057883520, guid: 7176edf8b0389e74f89300594e73c7cb, type: 3}
  - m_RefCount: 1
    m_Data: {fileID: 548546363338108862, guid: 7176edf8b0389e74f89300594e73c7cb, type: 3}
  - m_RefCount: 1
    m_Data: {fileID: -1035163811908992352, guid: 7176edf8b0389e74f89300594e73c7cb, type: 3}
  - m_RefCount: 1
    m_Data: {fileID: 3964305814159570622, guid: 7176edf8b0389e74f89300594e73c7cb, type: 3}
  - m_RefCount: 1
    m_Data: {fileID: -9089794308189941202, guid: 7176edf8b0389e74f89300594e73c7cb, type: 3}
  - m_RefCount: 1
    m_Data: {fileID: -6113719535634061639, guid: 7176edf8b0389e74f89300594e73c7cb, type: 3}
  - m_RefCount: 1
    m_Data: {fileID: -7160299197858064062, guid: 7176edf8b0389e74f89300594e73c7cb, type: 3}
  - m_RefCount: 1
    m_Data: {fileID: -1583202559257097115, guid: 7176edf8b0389e74f89300594e73c7cb, type: 3}
  - m_RefCount: 1
    m_Data: {fileID: -786977128915974803, guid: 7176edf8b0389e74f89300594e73c7cb, type: 3}
  - m_RefCount: 1
    m_Data: {fileID: -6952513240513140972, guid: 7176edf8b0389e74f89300594e73c7cb, type: 3}
  - m_RefCount: 1
    m_Data: {fileID: -4635820902732828232, guid: 7176edf8b0389e74f89300594e73c7cb, type: 3}
  - m_RefCount: 1
    m_Data: {fileID: -6678589591376429285, guid: 7176edf8b0389e74f89300594e73c7cb, type: 3}
  - m_RefCount: 1
    m_Data: {fileID: -6883525179852715705, guid: 7176edf8b0389e74f89300594e73c7cb, type: 3}
  - m_RefCount: 1
    m_Data: {fileID: -3949252040154449062, guid: 7176edf8b0389e74f89300594e73c7cb, type: 3}
  - m_RefCount: 1
    m_Data: {fileID: -4843205090182023274, guid: 7176edf8b0389e74f89300594e73c7cb, type: 3}
  - m_RefCount: 1
    m_Data: {fileID: 8439653959392803317, guid: 7176edf8b0389e74f89300594e73c7cb, type: 3}
  - m_RefCount: 1
    m_Data: {fileID: -6804860668387629856, guid: 7176edf8b0389e74f89300594e73c7cb, type: 3}
  - m_RefCount: 1
    m_Data: {fileID: 8261897536359003690, guid: 7176edf8b0389e74f89300594e73c7cb, type: 3}
  - m_RefCount: 1
    m_Data: {fileID: 7762023453845732475, guid: 7176edf8b0389e74f89300594e73c7cb, type: 3}
  - m_RefCount: 1
    m_Data: {fileID: 1445126568403803462, guid: 7176edf8b0389e74f89300594e73c7cb, type: 3}
  - m_RefCount: 1
    m_Data: {fileID: 4155488421029557970, guid: 7176edf8b0389e74f89300594e73c7cb, type: 3}
  - m_RefCount: 1
    m_Data: {fileID: 4050954281314860940, guid: 7176edf8b0389e74f89300594e73c7cb, type: 3}
  - m_RefCount: 1
    m_Data: {fileID: -2460183695686377341, guid: 7176edf8b0389e74f89300594e73c7cb, type: 3}
  - m_RefCount: 1
    m_Data: {fileID: -8618008409912041390, guid: 7176edf8b0389e74f89300594e73c7cb, type: 3}
  - m_RefCount: 1
    m_Data: {fileID: 8826498850966146692, guid: 7176edf8b0389e74f89300594e73c7cb, type: 3}
  - m_RefCount: 1
    m_Data: {fileID: -2846614351092099129, guid: 7176edf8b0389e74f89300594e73c7cb, type: 3}
  - m_RefCount: 1
    m_Data: {fileID: 6874460404152124098, guid: 7176edf8b0389e74f89300594e73c7cb, type: 3}
  - m_RefCount: 1
    m_Data: {fileID: 2597862027500013529, guid: 7176edf8b0389e74f89300594e73c7cb, type: 3}
  - m_RefCount: 1
    m_Data: {fileID: -4601295097175447546, guid: 7176edf8b0389e74f89300594e73c7cb, type: 3}
  - m_RefCount: 1
    m_Data: {fileID: 380361872382316060, guid: 7176edf8b0389e74f89300594e73c7cb, type: 3}
  - m_RefCount: 1
    m_Data: {fileID: -808163769803905224, guid: 7176edf8b0389e74f89300594e73c7cb, type: 3}
  - m_RefCount: 1
    m_Data: {fileID: 32111486110599792, guid: 7176edf8b0389e74f89300594e73c7cb, type: 3}
  - m_RefCount: 1
    m_Data: {fileID: -6583292983256384482, guid: 7176edf8b0389e74f89300594e73c7cb, type: 3}
  - m_RefCount: 1
    m_Data: {fileID: -4126603269780279599, guid: 7176edf8b0389e74f89300594e73c7cb, type: 3}
  - m_RefCount: 1
    m_Data: {fileID: 1893043479538686511, guid: 7176edf8b0389e74f89300594e73c7cb, type: 3}
  - m_RefCount: 1
    m_Data: {fileID: -5962086495574615008, guid: 7176edf8b0389e74f89300594e73c7cb, type: 3}
  - m_RefCount: 1
    m_Data: {fileID: -7274334682871895577, guid: 7176edf8b0389e74f89300594e73c7cb, type: 3}
  - m_RefCount: 1
    m_Data: {fileID: -5199013784030733680, guid: 7176edf8b0389e74f89300594e73c7cb, type: 3}
  - m_RefCount: 1
    m_Data: {fileID: -4689128566795450874, guid: 7176edf8b0389e74f89300594e73c7cb, type: 3}
  - m_RefCount: 1
    m_Data: {fileID: 3399000913204681009, guid: 7176edf8b0389e74f89300594e73c7cb, type: 3}
  - m_RefCount: 1
    m_Data: {fileID: -5924362225722636601, guid: 7176edf8b0389e74f89300594e73c7cb, type: 3}
  - m_RefCount: 1
    m_Data: {fileID: -7725664146745569563, guid: 7176edf8b0389e74f89300594e73c7cb, type: 3}
  - m_RefCount: 1
    m_Data: {fileID: -7122757323503805000, guid: 7176edf8b0389e74f89300594e73c7cb, type: 3}
  - m_RefCount: 1
    m_Data: {fileID: -8549247806904307078, guid: 7176edf8b0389e74f89300594e73c7cb, type: 3}
  - m_RefCount: 1
    m_Data: {fileID: 7519585945359401406, guid: 7176edf8b0389e74f89300594e73c7cb, type: 3}
  - m_RefCount: 1
    m_Data: {fileID: 9136114867064357544, guid: 7176edf8b0389e74f89300594e73c7cb, type: 3}
  - m_RefCount: 1
    m_Data: {fileID: -4451156297750762602, guid: 7176edf8b0389e74f89300594e73c7cb, type: 3}
  - m_RefCount: 1
    m_Data: {fileID: 6584454941320691019, guid: 7176edf8b0389e74f89300594e73c7cb, type: 3}
  - m_RefCount: 1
    m_Data: {fileID: -5121343590546858343, guid: 7176edf8b0389e74f89300594e73c7cb, type: 3}
  - m_RefCount: 1
    m_Data: {fileID: -6329209364981319924, guid: 7176edf8b0389e74f89300594e73c7cb, type: 3}
  - m_RefCount: 1
    m_Data: {fileID: -7314415468060047305, guid: 7176edf8b0389e74f89300594e73c7cb, type: 3}
  - m_RefCount: 1
    m_Data: {fileID: 8839975282115412184, guid: 7176edf8b0389e74f89300594e73c7cb, type: 3}
  - m_RefCount: 1
    m_Data: {fileID: 1812027643267182607, guid: 7176edf8b0389e74f89300594e73c7cb, type: 3}
  - m_RefCount: 1
    m_Data: {fileID: 1008042440999570749, guid: 7176edf8b0389e74f89300594e73c7cb, type: 3}
  - m_RefCount: 1
    m_Data: {fileID: -3455313596126831037, guid: 7176edf8b0389e74f89300594e73c7cb, type: 3}
  - m_RefCount: 1
    m_Data: {fileID: 5762953761401308301, guid: 7176edf8b0389e74f89300594e73c7cb, type: 3}
  - m_RefCount: 1
    m_Data: {fileID: 1617072193335870619, guid: 7176edf8b0389e74f89300594e73c7cb, type: 3}
  - m_RefCount: 1
    m_Data: {fileID: 1650171798089653226, guid: 7176edf8b0389e74f89300594e73c7cb, type: 3}
  - m_RefCount: 1
    m_Data: {fileID: -8878145244887229977, guid: 7176edf8b0389e74f89300594e73c7cb, type: 3}
  - m_RefCount: 1
    m_Data: {fileID: -1888543334057230468, guid: 7176edf8b0389e74f89300594e73c7cb, type: 3}
  - m_RefCount: 1
    m_Data: {fileID: -6237137228438810900, guid: 7176edf8b0389e74f89300594e73c7cb, type: 3}
  - m_RefCount: 1
    m_Data: {fileID: 1787266090147368514, guid: 7176edf8b0389e74f89300594e73c7cb, type: 3}
  - m_RefCount: 1
    m_Data: {fileID: -8559850035718238846, guid: 7176edf8b0389e74f89300594e73c7cb, type: 3}
  - m_RefCount: 1
    m_Data: {fileID: 3889098576357211628, guid: 7176edf8b0389e74f89300594e73c7cb, type: 3}
  - m_RefCount: 1
    m_Data: {fileID: -3279882944001253830, guid: 7176edf8b0389e74f89300594e73c7cb, type: 3}
  - m_RefCount: 1
    m_Data: {fileID: -848028965498549188, guid: 7176edf8b0389e74f89300594e73c7cb, type: 3}
  - m_RefCount: 1
    m_Data: {fileID: -6218090210649874604, guid: 7176edf8b0389e74f89300594e73c7cb, type: 3}
  - m_RefCount: 1
    m_Data: {fileID: -3228002154909122764, guid: 7176edf8b0389e74f89300594e73c7cb, type: 3}
  - m_RefCount: 1
    m_Data: {fileID: 954961733127079768, guid: 7176edf8b0389e74f89300594e73c7cb, type: 3}
  - m_RefCount: 1
    m_Data: {fileID: 116288719906944966, guid: 7176edf8b0389e74f89300594e73c7cb, type: 3}
  - m_RefCount: 1
    m_Data: {fileID: -626682013502204995, guid: 7176edf8b0389e74f89300594e73c7cb, type: 3}
  - m_RefCount: 1
    m_Data: {fileID: 3951870454285668511, guid: 7176edf8b0389e74f89300594e73c7cb, type: 3}
  - m_RefCount: 1
    m_Data: {fileID: -612356672615564296, guid: 7176edf8b0389e74f89300594e73c7cb, type: 3}
  - m_RefCount: 1
    m_Data: {fileID: -5083445130087839335, guid: 7176edf8b0389e74f89300594e73c7cb, type: 3}
  - m_RefCount: 1
    m_Data: {fileID: 3187417358550352873, guid: 7176edf8b0389e74f89300594e73c7cb, type: 3}
  - m_RefCount: 1
    m_Data: {fileID: 1155520871057954154, guid: 7176edf8b0389e74f89300594e73c7cb, type: 3}
  - m_RefCount: 1
    m_Data: {fileID: 1464300237492707184, guid: 7176edf8b0389e74f89300594e73c7cb, type: 3}
  - m_RefCount: 1
    m_Data: {fileID: 4370378540628050548, guid: 7176edf8b0389e74f89300594e73c7cb, type: 3}
  m_TileMatrixArray:
  - m_RefCount: 83
    m_Data:
      e00: 1
      e01: 0
      e02: 0
      e03: 0
      e10: 0
      e11: 1
      e12: 0
      e13: 0
      e20: 0
      e21: 0
      e22: 1
      e23: 0
      e30: 0
      e31: 0
      e32: 0
      e33: 1
  m_TileColorArray:
  - m_RefCount: 83
    m_Data: {r: 1, g: 1, b: 1, a: 1}
  m_TileObjectToInstantiateArray: []
  m_AnimationFrameRate: 1
  m_Color: {r: 1, g: 1, b: 1, a: 1}
  m_Origin: {x: -1, y: -4, z: 0}
  m_Size: {x: 16, y: 7, z: 1}
  m_TileAnchor: {x: 0.5, y: 0.5, z: 0}
  m_TileOrientation: 0
  m_TileOrientationMatrix:
    e00: 1
    e01: 0
    e02: 0
    e03: 0
    e10: 0
    e11: 1
    e12: 0
    e13: 0
    e20: 0
    e21: 0
    e22: 1
    e23: 0
    e30: 0
    e31: 0
    e32: 0
    e33: 1
--- !u!483693784 &5268355641212985415
TilemapRenderer:
  m_ObjectHideFlags: 0
  m_CorrespondingSourceObject: {fileID: 0}
  m_PrefabInstance: {fileID: 0}
  m_PrefabAsset: {fileID: 0}
  m_GameObject: {fileID: 3711056224608729667}
  m_Enabled: 1
  m_CastShadows: 0
  m_ReceiveShadows: 0
  m_DynamicOccludee: 0
  m_StaticShadowCaster: 0
  m_MotionVectors: 1
  m_LightProbeUsage: 0
  m_ReflectionProbeUsage: 0
  m_RayTracingMode: 0
  m_RayTraceProcedural: 0
  m_RenderingLayerMask: 1
  m_RendererPriority: 0
  m_Materials:
  - {fileID: 10754, guid: 0000000000000000f000000000000000, type: 0}
  m_StaticBatchInfo:
    firstSubMesh: 0
    subMeshCount: 0
  m_StaticBatchRoot: {fileID: 0}
  m_ProbeAnchor: {fileID: 0}
  m_LightProbeVolumeOverride: {fileID: 0}
  m_ScaleInLightmap: 1
  m_ReceiveGI: 1
  m_PreserveUVs: 0
  m_IgnoreNormalsForChartDetection: 0
  m_ImportantGI: 0
  m_StitchLightmapSeams: 1
  m_SelectedEditorRenderState: 0
  m_MinimumChartSize: 4
  m_AutoUVMaxDistance: 0.5
  m_AutoUVMaxAngle: 89
  m_LightmapParameters: {fileID: 0}
  m_SortingLayerID: 0
  m_SortingLayer: 0
  m_SortingOrder: 0
  m_ChunkSize: {x: 32, y: 32, z: 32}
  m_ChunkCullingBounds: {x: 0, y: 0, z: 0}
  m_MaxChunkCount: 16
  m_MaxFrameAge: 16
  m_SortOrder: 0
  m_Mode: 0
  m_DetectChunkCullingBounds: 0
  m_MaskInteraction: 0
--- !u!1 &7163402933044368506
GameObject:
  m_ObjectHideFlags: 0
  m_CorrespondingSourceObject: {fileID: 0}
  m_PrefabInstance: {fileID: 0}
  m_PrefabAsset: {fileID: 0}
  serializedVersion: 6
  m_Component:
  - component: {fileID: 841607698169033123}
  - component: {fileID: 4501258830862354110}
  m_Layer: 0
  m_Name: tileset_5
  m_TagString: Untagged
  m_Icon: {fileID: 0}
  m_NavMeshLayer: 0
  m_StaticEditorFlags: 0
  m_IsActive: 1
--- !u!4 &841607698169033123
Transform:
  m_ObjectHideFlags: 0
  m_CorrespondingSourceObject: {fileID: 0}
  m_PrefabInstance: {fileID: 0}
  m_PrefabAsset: {fileID: 0}
  m_GameObject: {fileID: 7163402933044368506}
  m_LocalRotation: {x: 0, y: 0, z: 0, w: 1}
  m_LocalPosition: {x: 0, y: 0, z: 0}
  m_LocalScale: {x: 1, y: 1, z: 1}
  m_ConstrainProportionsScale: 0
  m_Children:
  - {fileID: 7656937109464583611}
  m_Father: {fileID: 0}
  m_RootOrder: 0
  m_LocalEulerAnglesHint: {x: 0, y: 0, z: 0}
--- !u!156049354 &4501258830862354110
Grid:
  m_ObjectHideFlags: 0
  m_CorrespondingSourceObject: {fileID: 0}
  m_PrefabInstance: {fileID: 0}
  m_PrefabAsset: {fileID: 0}
  m_GameObject: {fileID: 7163402933044368506}
  m_Enabled: 1
  m_CellSize: {x: 1, y: 1, z: 0}
  m_CellGap: {x: 0, y: 0, z: 0}
  m_CellLayout: 0
  m_CellSwizzle: 0
--- !u!114 &7232187360091058441
MonoBehaviour:
  m_ObjectHideFlags: 0
  m_CorrespondingSourceObject: {fileID: 0}
  m_PrefabInstance: {fileID: 0}
  m_PrefabAsset: {fileID: 0}
  m_GameObject: {fileID: 0}
  m_Enabled: 1
  m_EditorHideFlags: 0
  m_Script: {fileID: 12395, guid: 0000000000000000e000000000000000, type: 0}
  m_Name: Palette Settings
  m_EditorClassIdentifier: 
  cellSizing: 0
  m_TransparencySortMode: 0
  m_TransparencySortAxis: {x: 0, y: 0, z: 1}
