%YAML 1.1
%TAG !u! tag:unity3d.com,2011:
--- !u!74 &7400000
AnimationClip:
  m_ObjectHideFlags: 0
  m_CorrespondingSourceObject: {fileID: 0}
  m_PrefabInstance: {fileID: 0}
  m_PrefabAsset: {fileID: 0}
  m_Name: Skeleton_spear_run
  serializedVersion: 6
  m_Legacy: 0
  m_Compressed: 0
  m_UseHighQualityCurve: 1
  m_RotationCurves: []
  m_CompressedRotationCurves: []
  m_EulerCurves: []
  m_PositionCurves: []
  m_ScaleCurves: []
  m_FloatCurves: []
  m_PPtrCurves:
  - curve:
    - time: 0
      value: {fileID: 21300000, guid: 4d2e83dddd787914dadf0f3154ff25bd, type: 3}
    - time: 0.0625
      value: {fileID: 21300000, guid: 0d52bf02f2e668848a884d71160668cd, type: 3}
    - time: 0.125
      value: {fileID: 21300000, guid: 8ff64f9c3481a6f478b46f989ffe42bb, type: 3}
    - time: 0.1875
      value: {fileID: 21300000, guid: adcaa2dc1529f2049968b4a1bbf05abf, type: 3}
    - time: 0.25
      value: {fileID: 21300000, guid: 5c7f4cfeb73b8d346941f1c41fb19c73, type: 3}
    - time: 0.3125
      value: {fileID: 21300000, guid: ebf010e047b5f3149bf1d68fdcddd3f5, type: 3}
    - time: 0.375
      value: {fileID: 21300000, guid: e4a33542d04385b47a7c24c093f71bfb, type: 3}
    - time: 0.4375
      value: {fileID: 21300000, guid: 68310e7fca35b124e8c091895acd1eb3, type: 3}
    - time: 0.5
      value: {fileID: 21300000, guid: 9a802e70df2c51a4fa7ccbf20391935c, type: 3}
    - time: 0.5625
      value: {fileID: 21300000, guid: 6a3715f8cc6ae3542b94fa4c6cacce86, type: 3}
    attribute: m_Sprite
    path: 
    classID: 212
    script: {fileID: 0}
  m_SampleRate: 16
  m_WrapMode: 0
  m_Bounds:
    m_Center: {x: 0, y: 0, z: 0}
    m_Extent: {x: 0, y: 0, z: 0}
  m_ClipBindingConstant:
    genericBindings:
    - serializedVersion: 2
      path: 0
      attribute: 0
      script: {fileID: 0}
      typeID: 212
      customType: 23
      isPPtrCurve: 1
    pptrCurveMapping:
    - {fileID: 21300000, guid: 4d2e83dddd787914dadf0f3154ff25bd, type: 3}
    - {fileID: 21300000, guid: 0d52bf02f2e668848a884d71160668cd, type: 3}
    - {fileID: 21300000, guid: 8ff64f9c3481a6f478b46f989ffe42bb, type: 3}
    - {fileID: 21300000, guid: adcaa2dc1529f2049968b4a1bbf05abf, type: 3}
    - {fileID: 21300000, guid: 5c7f4cfeb73b8d346941f1c41fb19c73, type: 3}
    - {fileID: 21300000, guid: ebf010e047b5f3149bf1d68fdcddd3f5, type: 3}
    - {fileID: 21300000, guid: e4a33542d04385b47a7c24c093f71bfb, type: 3}
    - {fileID: 21300000, guid: 68310e7fca35b124e8c091895acd1eb3, type: 3}
    - {fileID: 21300000, guid: 9a802e70df2c51a4fa7ccbf20391935c, type: 3}
    - {fileID: 21300000, guid: 6a3715f8cc6ae3542b94fa4c6cacce86, type: 3}
  m_AnimationClipSettings:
    serializedVersion: 2
    m_AdditiveReferencePoseClip: {fileID: 0}
    m_AdditiveReferencePoseTime: 0
    m_StartTime: 0
    m_StopTime: 0.625
    m_OrientationOffsetY: 0
    m_Level: 0
    m_CycleOffset: 0
    m_HasAdditiveReferencePose: 0
    m_LoopTime: 1
    m_LoopBlend: 0
    m_LoopBlendOrientation: 0
    m_LoopBlendPositionY: 0
    m_LoopBlendPositionXZ: 0
    m_KeepOriginalOrientation: 0
    m_KeepOriginalPositionY: 1
    m_KeepOriginalPositionXZ: 0
    m_HeightFromFeet: 0
    m_Mirror: 0
  m_EditorCurves: []
  m_EulerEditorCurves: []
  m_HasGenericRootTransform: 0
  m_HasMotionFloatCurves: 0
  m_Events: []
