%YAML 1.1
%TAG !u! tag:unity3d.com,2011:
--- !u!74 &7400000
AnimationClip:
  m_ObjectHideFlags: 0
  m_CorrespondingSourceObject: {fileID: 0}
  m_PrefabInstance: {fileID: 0}
  m_PrefabAsset: {fileID: 0}
  m_Name: Player_sword_idle
  serializedVersion: 6
  m_Legacy: 0
  m_Compressed: 0
  m_UseHighQualityCurve: 1
  m_RotationCurves: []
  m_CompressedRotationCurves: []
  m_EulerCurves: []
  m_PositionCurves: []
  m_ScaleCurves: []
  m_FloatCurves: []
  m_PPtrCurves:
  - curve:
    - time: 0
      value: {fileID: 21300000, guid: 423177b1411ba2b4f9852dfb3a65948e, type: 3}
    - time: 0.0625
      value: {fileID: 21300000, guid: a7598f2eb5c20864bb4a7446755c7dc2, type: 3}
    - time: 0.125
      value: {fileID: 21300000, guid: f2eb9a755ab96cf499b88bf4aee7dae2, type: 3}
    - time: 0.1875
      value: {fileID: 21300000, guid: c9071fa5e4563964fb640e87db346ce0, type: 3}
    - time: 0.25
      value: {fileID: 21300000, guid: 6eebc31f832c60a409e0d653c252ca25, type: 3}
    - time: 0.3125
      value: {fileID: 21300000, guid: 38a08beff0b47174faa3229822687623, type: 3}
    - time: 0.375
      value: {fileID: 21300000, guid: 16029e644060b3d4e930a2017bbbf019, type: 3}
    - time: 0.4375
      value: {fileID: 21300000, guid: c8cf5e254a956df46a7606c390da16f4, type: 3}
    attribute: m_Sprite
    path: 
    classID: 212
    script: {fileID: 0}
  m_SampleRate: 16
  m_WrapMode: 0
  m_Bounds:
    m_Center: {x: 0, y: 0, z: 0}
    m_Extent: {x: 0, y: 0, z: 0}
  m_ClipBindingConstant:
    genericBindings:
    - serializedVersion: 2
      path: 0
      attribute: 0
      script: {fileID: 0}
      typeID: 212
      customType: 23
      isPPtrCurve: 1
    pptrCurveMapping:
    - {fileID: 21300000, guid: 423177b1411ba2b4f9852dfb3a65948e, type: 3}
    - {fileID: 21300000, guid: a7598f2eb5c20864bb4a7446755c7dc2, type: 3}
    - {fileID: 21300000, guid: f2eb9a755ab96cf499b88bf4aee7dae2, type: 3}
    - {fileID: 21300000, guid: c9071fa5e4563964fb640e87db346ce0, type: 3}
    - {fileID: 21300000, guid: 6eebc31f832c60a409e0d653c252ca25, type: 3}
    - {fileID: 21300000, guid: 38a08beff0b47174faa3229822687623, type: 3}
    - {fileID: 21300000, guid: 16029e644060b3d4e930a2017bbbf019, type: 3}
    - {fileID: 21300000, guid: c8cf5e254a956df46a7606c390da16f4, type: 3}
  m_AnimationClipSettings:
    serializedVersion: 2
    m_AdditiveReferencePoseClip: {fileID: 0}
    m_AdditiveReferencePoseTime: 0
    m_StartTime: 0
    m_StopTime: 0.5
    m_OrientationOffsetY: 0
    m_Level: 0
    m_CycleOffset: 0
    m_HasAdditiveReferencePose: 0
    m_LoopTime: 1
    m_LoopBlend: 0
    m_LoopBlendOrientation: 0
    m_LoopBlendPositionY: 0
    m_LoopBlendPositionXZ: 0
    m_KeepOriginalOrientation: 0
    m_KeepOriginalPositionY: 1
    m_KeepOriginalPositionXZ: 0
    m_HeightFromFeet: 0
    m_Mirror: 0
  m_EditorCurves: []
  m_EulerEditorCurves: []
  m_HasGenericRootTransform: 0
  m_HasMotionFloatCurves: 0
  m_Events: []
