%YAML 1.1
%TAG !u! tag:unity3d.com,2011:
--- !u!74 &7400000
AnimationClip:
  m_ObjectHideFlags: 0
  m_CorrespondingSourceObject: {fileID: 0}
  m_PrefabInstance: {fileID: 0}
  m_PrefabAsset: {fileID: 0}
  m_Name: Boss_run
  serializedVersion: 6
  m_Legacy: 0
  m_Compressed: 0
  m_UseHighQualityCurve: 1
  m_RotationCurves: []
  m_CompressedRotationCurves: []
  m_EulerCurves: []
  m_PositionCurves: []
  m_ScaleCurves: []
  m_FloatCurves: []
  m_PPtrCurves:
  - curve:
    - time: 0
      value: {fileID: 21300000, guid: c583ff97168f4454b812ad533b8b2a67, type: 3}
    - time: 0.0625
      value: {fileID: 21300000, guid: 633874b71fa8ab945aa6d8c048b9353c, type: 3}
    - time: 0.125
      value: {fileID: 21300000, guid: 8873d9fbe3e7da544902565b18645b3c, type: 3}
    - time: 0.1875
      value: {fileID: 21300000, guid: 5e3bb677050576a498f4ff1e3980b4ac, type: 3}
    - time: 0.25
      value: {fileID: 21300000, guid: 8e0e958abe8c14f4cbb0a3995aa19831, type: 3}
    - time: 0.3125
      value: {fileID: 21300000, guid: c734f2a05b25036439d5e9f4a5056509, type: 3}
    - time: 0.375
      value: {fileID: 21300000, guid: a9312ec366beb944aa5867a4b76716e9, type: 3}
    - time: 0.4375
      value: {fileID: 21300000, guid: 81adebf75147f7c41ae217b2fe9468bc, type: 3}
    - time: 0.5
      value: {fileID: 21300000, guid: 7e17dbeb09984fc4a92e0f621766d921, type: 3}
    - time: 0.5625
      value: {fileID: 21300000, guid: 7111510a98713db4789bf141a5d8adf5, type: 3}
    - time: 0.625
      value: {fileID: 21300000, guid: 00b509cafb3486c43b79a4163d79ead2, type: 3}
    - time: 0.6875
      value: {fileID: 21300000, guid: 0b77d948da7dc7940b2e60e091b4077a, type: 3}
    attribute: m_Sprite
    path: 
    classID: 212
    script: {fileID: 0}
  m_SampleRate: 16
  m_WrapMode: 0
  m_Bounds:
    m_Center: {x: 0, y: 0, z: 0}
    m_Extent: {x: 0, y: 0, z: 0}
  m_ClipBindingConstant:
    genericBindings:
    - serializedVersion: 2
      path: 0
      attribute: 0
      script: {fileID: 0}
      typeID: 212
      customType: 23
      isPPtrCurve: 1
    pptrCurveMapping:
    - {fileID: 21300000, guid: c583ff97168f4454b812ad533b8b2a67, type: 3}
    - {fileID: 21300000, guid: 633874b71fa8ab945aa6d8c048b9353c, type: 3}
    - {fileID: 21300000, guid: 8873d9fbe3e7da544902565b18645b3c, type: 3}
    - {fileID: 21300000, guid: 5e3bb677050576a498f4ff1e3980b4ac, type: 3}
    - {fileID: 21300000, guid: 8e0e958abe8c14f4cbb0a3995aa19831, type: 3}
    - {fileID: 21300000, guid: c734f2a05b25036439d5e9f4a5056509, type: 3}
    - {fileID: 21300000, guid: a9312ec366beb944aa5867a4b76716e9, type: 3}
    - {fileID: 21300000, guid: 81adebf75147f7c41ae217b2fe9468bc, type: 3}
    - {fileID: 21300000, guid: 7e17dbeb09984fc4a92e0f621766d921, type: 3}
    - {fileID: 21300000, guid: 7111510a98713db4789bf141a5d8adf5, type: 3}
    - {fileID: 21300000, guid: 00b509cafb3486c43b79a4163d79ead2, type: 3}
    - {fileID: 21300000, guid: 0b77d948da7dc7940b2e60e091b4077a, type: 3}
  m_AnimationClipSettings:
    serializedVersion: 2
    m_AdditiveReferencePoseClip: {fileID: 0}
    m_AdditiveReferencePoseTime: 0
    m_StartTime: 0
    m_StopTime: 0.75
    m_OrientationOffsetY: 0
    m_Level: 0
    m_CycleOffset: 0
    m_HasAdditiveReferencePose: 0
    m_LoopTime: 1
    m_LoopBlend: 0
    m_LoopBlendOrientation: 0
    m_LoopBlendPositionY: 0
    m_LoopBlendPositionXZ: 0
    m_KeepOriginalOrientation: 0
    m_KeepOriginalPositionY: 1
    m_KeepOriginalPositionXZ: 0
    m_HeightFromFeet: 0
    m_Mirror: 0
  m_EditorCurves: []
  m_EulerEditorCurves: []
  m_HasGenericRootTransform: 0
  m_HasMotionFloatCurves: 0
  m_Events: []
